Host:      mgmt1
2:0:1:0    SCSI{2  :0  :1  :0  } hdd  : [ HP : EG002400JWJNT: WBM0BWKQ ]: /dev/sdi,/dev/sg10

page      : 100 iters                                  cost
0x00,00   : ..........  2.8366 total :  0.0284 avg      1
0x00,0xff : ..........  2.7852 total :  0.0279 avg      1
0x02,00   : ..........  2.7930 total :  0.0279 avg      1
0x03,00   : ..........  2.7703 total :  0.0277 avg      1
0x05,00   : ..........  2.7826 total :  0.0278 avg      1
0x06,00   : ..........  2.8004 total :  0.0280 avg      1
0x0d,00   : ..........  2.7707 total :  0.0277 avg      1
0x0d,01   : ..........  2.7596 total :  0.0276 avg      1
0x0d,02   : ..........  2.7841 total :  0.0278 avg      1
0x0e,00   : ..........  2.7978 total :  0.0280 avg      1
0x0f,00   : ..........  7.1966 total :  0.0720 avg       2
0x10,00   : ..........  2.8036 total :  0.0280 avg      1
0x15,00   : .......... 11.8023 total :  0.1180 avg        3
0x17,00   : **********  1.4785 total :  0.0148 avg     *
0x18,00   : ..........  2.7660 total :  0.0277 avg      1
0x1a,00   : ..........  2.7967 total :  0.0280 avg      1
0x2f,00   : ..........  2.7973 total :  0.0280 avg      1
0x30,00   : **********  0.2768 total :  0.0028 avg     *
0x32,00   : ..........  2.8177 total :  0.0282 avg      1
0x35,00   : ..........  2.7829 total :  0.0278 avg      1
0x36,00   : ..........  4.3458 total :  0.0435 avg       2
0x37,00   : ..........  2.7984 total :  0.0280 avg      1
0x37,01   : ..........  2.8237 total :  0.0282 avg      1
0x38,00   : ..........  2.8158 total :  0.0282 avg      1
0x39,00   : ..........  4.5623 total :  0.0456 avg       2
0x3d,01   : **********  1.4647 total :  0.0146 avg     *
0x3e,00   : ..........  2.8081 total :  0.0281 avg      1
