Host:      sg-node1
0:0:7:0    SCSI{0  :0  :7  :0  } hdd  : [ SEAGATE : ST10000NM0206: ZA29BN990000C9091BA4 ]: /dev/sdh,/dev/sg7

page      : 100 iters                                  cost
0x00,00   : ..........  8.3933 total :  0.0839 avg      1
0x00,0xff : ..........  8.3295 total :  0.0833 avg      1
0x02,00   : ..........  8.0231 total :  0.0802 avg      1
0x03,00   : ..........  8.3743 total :  0.0837 avg      1
0x05,00   : ..........  8.3528 total :  0.0835 avg      1
0x06,00   : ..........  8.5293 total :  0.0853 avg      1
0x08,00   : .......... 12.6076 total :  0.1261 avg       2
0x0d,00   : ..........  8.2799 total :  0.0828 avg      1
0x0e,00   : ..........  8.3623 total :  0.0836 avg      1
0x0f,00   : .......... 14.4448 total :  0.1444 avg       2
0x10,00   : ..........  8.0930 total :  0.0809 avg      1
0x15,00   : .......... 19.7979 total :  0.1980 avg        3
0x18,00   : ..........  7.9229 total :  0.0792 avg      1
0x1a,00   : ..........  8.7665 total :  0.0877 avg      1
0x2f,00   : ..........  8.7054 total :  0.0871 avg      1
0x37,00   : ..........  8.4419 total :  0.0844 avg      1
0x38,00   : ..........  7.8370 total :  0.0784 avg      1
0x3d,01   : **********  6.4368 total :  0.0644 avg     *
0x3e,00   : ..........  8.5083 total :  0.0851 avg      1
