[
  { "log_page": null,
    "desc"    : "Supported Log Pages               5.2.21",
    "data"    : { "page": 0,  "subpage": 0 },
    "expect"  : [{
      "name"  : "logpage",
      "labels": {
        "log_page"       : "0x0,0",
        "log_page_name"  : "LogPage[0x00,00]",
        "log_page_level" : 0,
        "log_page_cost"  : 1.0,
        "units"          : "supported"
      },
      "value"  : 1
    }]
  },
  { "log_page": null,
    "desc"    : "Supported Log Pages and Subpages  5.2.22",
    "data"    : { "page": 0,  "subpage": 255 },
    "expect"  : [{
      "name"  : "logpage",
      "labels": {
        "log_page"       : "0x0,ff",
        "log_page_name"  : "LogPage[0x00,ff]",
        "log_page_level" : 0,
        "log_page_cost"  : 1.0,
        "units"          : "supported"
      },
      "value"  : 1
    }]
  },
  { "log_page": null,
    "desc"    : "Write Error Counter               5.2.9",
    "data"    : { "page": 2,  "subpage": 0 },
    "expect"  : [{
      "name"  : "logpage",
      "labels": {
        "log_page"       : "0x2,0",
        "log_page_name"  : "LogPage[0x02,00]",
        "log_page_level" : 0,
        "log_page_cost"  : 1.0,
        "units"          : "supported"
      },
      "value"  : 1
    }]
  },
  { "log_page": null,
    "desc"    : "Read Error Counter                5.2.9",
    "data"    : { "page": 3,  "subpage": 0 },
    "expect"  : [{
      "name"  : "logpage",
      "labels": {
        "log_page"       : "0x3,0",
        "log_page_name"  : "LogPage[0x03,00]",
        "log_page_level" : 0,
        "log_page_cost"  : 1.0,
        "units"          : "supported"
      },
      "value"  : 1
    }]
  },
  { "log_page": null,
    "desc"    : "Verify Error Counter              5.2.9",
    "data"    : { "page": 5,  "subpage": 0 },
    "expect"  : [{
      "name"  : "logpage",
      "labels": {
        "log_page"       : "0x5,0",
        "log_page_name"  : "LogPage[0x05,00]",
        "log_page_level" : 0,
        "log_page_cost"  : 1.0,
        "units"          : "supported"
      },
      "value"  : 1
    }]
  },
  { "log_page": null,
    "desc"    : "Non-Medium Error                  5.2.14",
    "data"    : { "page": 6,  "subpage": 0 },
    "expect"  : [{
      "name"  : "logpage",
      "labels": {
        "log_page"       : "0x6,0",
        "log_page_name"  : "LogPage[0x06,00]",
        "log_page_level" : 0,
        "log_page_cost"  : 1.0,
        "units"          : "supported"
      },
      "value"  : 1
    }]
  },
  { "log_page": null,
    "desc"    : "Format Status                     5.2.11",
    "data"    : { "page": 8,  "subpage": 0 },
    "expect"  : [{
      "name"  : "logpage",
      "labels": {
        "log_page"       : "0x8,0",
        "log_page_name"  : "LogPage[0x08,00]",
        "log_page_level" : 0,
        "log_page_cost"  : 1.0,
        "units"          : "supported"
      },
      "value"  : 1
    }]
  },
  { "log_page": null,
    "desc"    : "Logical Block Provisioning        5.2.13",
    "data"    : { "page": 12, "subpage": 0 },
    "expect"  : [{
      "name"  : "logpage",
      "labels": {
        "log_page"       : "0xc,0",
        "log_page_name"  : "LogPage[0x0c,00]",
        "log_page_level" : 0,
        "log_page_cost"  : 1.0,
        "units"          : "supported"
      },
      "value"  : 1
    }]
  },
  { "log_page": null,
    "desc"    : "Temperature                       5.2.23",
    "data"    : { "page": 13, "subpage": 0 },
    "expect"  : [{
      "name"  : "logpage",
      "labels": {
        "log_page"       : "0xd,0",
        "log_page_name"  : "LogPage[0x0d,00]",
        "log_page_level" : 0,
        "log_page_cost"  : 1.0,
        "units"          : "supported"
      },
      "value"  : 1
    }]
  },
  { "log_page": null,
    "desc"    : "Environmental Reporting           5.2.8",
    "data"    : { "page": 13, "subpage": 1 },
    "expect"  : [{
      "name"  : "logpage",
      "labels": {
        "log_page"       : "0xd,1",
        "log_page_name"  : "LogPage[0x0d,01]",
        "log_page_level" : 0,
        "log_page_cost"  : 1.0,
        "units"          : "supported"
      },
      "value"  : 1
    }]
  },
  { "log_page": null,
    "desc"    : "Environmental Limits              5.2.7",
    "data"    : { "page": 13, "subpage": 2 },
    "expect"  : [{
      "name"  : "logpage",
      "labels": {
        "log_page"       : "0xd,2",
        "log_page_name"  : "LogPage[0x0d,02]",
        "log_page_level" : 0,
        "log_page_cost"  : 1.0,
        "units"          : "supported"
      },
      "value"  : 1
    }]
  },
  { "log_page": null,
    "desc"    : "Start-Stop Cycle Counter          5.2.20",
    "data"    : { "page": 14, "subpage": 0 },
    "expect"  : [{
      "name"  : "logpage",
      "labels": {
        "log_page"       : "0xe,0",
        "log_page_name"  : "LogPage[0x0e,00]",
        "log_page_level" : 0,
        "log_page_cost"  : 1.0,
        "units"          : "supported"
      },
      "value"  : 1
    }]
  },
  { "log_page": null,
    "desc"    : "Utilization                       5.2.24",
    "data"    : { "page": 14, "subpage": 1 },
    "expect"  : [{
      "name"  : "logpage",
      "labels": {
        "log_page"       : "0xe,1",
        "log_page_name"  : "LogPage[0x0e,01]",
        "log_page_level" : 0,
        "log_page_cost"  : 1.0,
        "units"          : "supported"
      },
      "value"  : 1
    }]
  },
  { "log_page": null,
    "desc"    : "Application Client                5.2.3",
    "data"    : { "page": 15, "subpage": 0 },
    "expect"  : [{
      "name"  : "logpage",
      "labels": {
        "log_page"       : "0xf,0",
        "log_page_name"  : "LogPage[0x0f,00]",
        "log_page_level" : 0,
        "log_page_cost"  : 1.0,
        "units"          : "supported"
      },
      "value"  : 1
    }]
  },
  { "log_page": null,
    "desc"    : "Self-Test Results                 5.2.18",
    "data"    : { "page": 16, "subpage": 0 },
    "expect"  : [{
      "name"  : "logpage",
      "labels": {
        "log_page"       : "0x10,0",
        "log_page_name"  : "LogPage[0x10,00]",
        "log_page_level" : 0,
        "log_page_cost"  : 1.0,
        "units"          : "supported"
      },
      "value"  : 1
    }]
  },
  { "log_page": null,
    "desc"    : "Solid State Media                 5.2.19",
    "data"    : { "page": 17, "subpage": 0 },
    "expect"  : [{
      "name"  : "logpage",
      "labels": {
        "log_page"       : "0x11,0",
        "log_page_name"  : "LogPage[0x11,00]",
        "log_page_level" : 0,
        "log_page_cost"  : 1.0,
        "units"          : "supported"
      },
      "value"  : 1
    }]
  },
  { "log_page": null,
    "desc"    : "Background Scan                   5.2.4",
    "data"    : { "page": 21, "subpage": 0 },
    "expect"  : [{
      "name"  : "logpage",
      "labels": {
        "log_page"       : "0x15,0",
        "log_page_name"  : "LogPage[0x15,00]",
        "log_page_level" : 0,
        "log_page_cost"  : 1.0,
        "units"          : "supported"
      },
      "value"  : 1
    }]
  },
  { "log_page": null,
    "desc"    : "Pending Defects                   5.2.15",
    "data"    : { "page": 21, "subpage": 1 },
    "expect"  : [{
      "name"  : "logpage",
      "labels": {
        "log_page"       : "0x15,1",
        "log_page_name"  : "LogPage[0x15,01]",
        "log_page_level" : 0,
        "log_page_cost"  : 1.0,
        "units"          : "supported"
      },
      "value"  : 1
    }]
  },
  { "log_page": null,
    "desc"    : "Background Operation              5.2.5",
    "data"    : { "page": 21, "subpage": 2 },
    "expect"  : [{
      "name"  : "logpage",
      "labels": {
        "log_page"       : "0x15,2",
        "log_page_name"  : "LogPage[0x15,02]",
        "log_page_level" : 0,
        "log_page_cost"  : 1.0,
        "units"          : "supported"
      },
      "value"  : 1
    }]
  },
  { "log_page": null,
    "desc"    : "Non-Volatile Cache                sg3_utils",
    "data"    : { "page": 23, "subpage": 0 },
    "expect"  : [{
      "name"  : "logpage",
      "labels": {
        "log_page"       : "0x17,0",
        "log_page_name"  : "LogPage[0x17,00]",
        "log_page_level" : 0,
        "log_page_cost"  : 1.0,
        "units"          : "supported"
      },
      "value"  : 1
    }]
  },
  { "log_page": null,
    "desc"    : "Protocol Specific Port            5.2.17",
    "data"    : { "page": 24, "subpage": 0 },
    "expect"  : [{
      "name"  : "logpage",
      "labels": {
        "log_page"       : "0x18,0",
        "log_page_name"  : "LogPage[0x18,00]",
        "log_page_level" : 0,
        "log_page_cost"  : 1.0,
        "units"          : "supported"
      },
      "value"  : 1
    }]
  },
  { "log_page": null,
    "desc"    : "General stats and performance     sg3_utils",
    "data"    : { "page": 25, "subpage": 0 },
    "expect"  : [{
      "name"  : "logpage",
      "labels": {
        "log_page"       : "0x19,0",
        "log_page_name"  : "LogPage[0x19,00]",
        "log_page_level" : 0,
        "log_page_cost"  : 1.0,
        "units"          : "supported"
      },
      "value"  : 1
    }]
  },
  { "log_page": null,
    "desc"    : "Power Condition Transitions       5.2.16",
    "data"    : { "page": 26, "subpage": 0 },
    "expect"  : [{
      "name"  : "logpage",
      "labels": {
        "log_page"       : "0x1a,0",
        "log_page_name"  : "LogPage[0x1a,00]",
        "log_page_level" : 0,
        "log_page_cost"  : 1.0,
        "units"          : "supported"
      },
      "value"  : 1
    }]
  },
  { "log_page": null,
    "desc"    : "Informational Exceptions          5.2.12",
    "data"    : { "page": 47, "subpage": 0 },
    "expect"  : [{
      "name"  : "logpage",
      "labels": {
        "log_page"       : "0x2f,0",
        "log_page_name"  : "LogPage[0x2f,00]",
        "log_page_level" : 0,
        "log_page_cost"  : 1.0,
        "units"          : "supported"
      },
      "value"  : 1
    }]
  },
  { "log_page": null,
    "desc"    : "Unknown (seen with HP/HGST drives)",
    "data"    : { "page": 48, "subpage": 0 },
    "expect"  : [{
      "name"  : "logpage",
      "labels": {
        "log_page"       : "0x30,0",
        "log_page_name"  : "LogPage[0x30,00]",
        "log_page_level" : 0,
        "log_page_cost"  : 1.0,
        "units"          : "supported"
      },
      "value"  : 1
    }]
  },
  { "log_page": null,
    "desc"    : "Unknown (seen with HP drives)",
    "data"    : { "page": 50, "subpage": 0 },
    "expect"  : [{
      "name"  : "logpage",
      "labels": {
        "log_page"       : "0x32,0",
        "log_page_name"  : "LogPage[0x32,00]",
        "log_page_level" : 0,
        "log_page_cost"  : 1.0,
        "units"          : "supported"
      },
      "value"  : 1
    }]
  },
  { "log_page": null,
    "desc"    : "Unknown (seen with HP drives)",
    "data"    : { "page": 53, "subpage": 0 },
    "expect"  : [{
      "name"  : "logpage",
      "labels": {
        "log_page"       : "0x35,0",
        "log_page_name"  : "LogPage[0x35,00]",
        "log_page_level" : 0,
        "log_page_cost"  : 1.0,
        "units"          : "supported"
      },
      "value"  : 1
    }]
  },
  { "log_page": null,
    "desc"    : "Unknown (seen with HP drives)",
    "data"    : { "page": 54, "subpage": 0 },
    "expect"  : [{
      "name"  : "logpage",
      "labels": {
        "log_page"       : "0x36,0",
        "log_page_name"  : "LogPage[0x36,00]",
        "log_page_level" : 0,
        "log_page_cost"  : 1.0,
        "units"          : "supported"
      },
      "value"  : 1
    }]
  },
  { "log_page": null,
    "desc"    : "Cache Statistics                  5.2.6",
    "data"    : { "page": 55, "subpage": 0 },
    "expect"  : [{
      "name"  : "logpage",
      "labels": {
        "log_page"       : "0x37,0",
        "log_page_name"  : "LogPage[0x37,00]",
        "log_page_level" : 0,
        "log_page_cost"  : 1.0,
        "units"          : "supported"
      },
      "value"  : 1
    }]
  },
  { "log_page": null,
    "desc"    : "Unknown (seen with HP drives)",
    "data"    : { "page": 55, "subpage": 1 },
    "expect"  : [{
      "name"  : "logpage",
      "labels": {
        "log_page"       : "0x37,1",
        "log_page_name"  : "LogPage[0x37,01]",
        "log_page_level" : 0,
        "log_page_cost"  : 1.0,
        "units"          : "supported"
      },
      "value"  : 1
    }]
  },
  { "log_page": null,
    "desc"    : "Unknown (seen with HP drives)",
    "data"    : { "page": 56, "subpage": 0 },
    "expect"  : [{
      "name"  : "logpage",
      "labels": {
        "log_page"       : "0x38,0",
        "log_page_name"  : "LogPage[0x38,00]",
        "log_page_level" : 0,
        "log_page_cost"  : 1.0,
        "units"          : "supported"
      },
      "value"  : 1
    }]
  },
  { "log_page": null,
    "desc"    : "Unknown (seen with HP drives)",
    "data"    : { "page": 57, "subpage": 0 },
    "expect"  : [{
      "name"  : "logpage",
      "labels": {
        "log_page"       : "0x39,0",
        "log_page_name"  : "LogPage[0x39,00]",
        "log_page_level" : 0,
        "log_page_cost"  : 1.0,
        "units"          : "supported"
      },
      "value"  : 1
    }]
  },
  { "log_page": null,
    "desc"    : "Unknown (seen with HP drives)",
    "data"    : { "page": 61, "subpage": 1 },
    "expect"  : [{
      "name"  : "logpage",
      "labels": {
        "log_page"       : "0x3d,1",
        "log_page_name"  : "LogPage[0x3d,01]",
        "log_page_level" : 0,
        "log_page_cost"  : 1.0,
        "units"          : "supported"
      },
      "value"  : 1
    }]
  },
  { "log_page": null,
    "desc"    : "Factory Log                       5.2.10",
    "data"    : { "page": 62, "subpage": 0 },
    "expect"  : [{
      "name"  : "logpage",
      "labels": {
        "log_page"       : "0x3e,0",
        "log_page_name"  : "LogPage[0x3e,00]",
        "log_page_level" : 0,
        "log_page_cost"  : 1.0,
        "units"          : "supported"
      },
      "value"  : 1
    }]
  }
]
